{
  "indexes": [
    {
      "collectionGroup": "core-meeting",
      "queryScope": "COLLECTION",
      "fields": [
        {
          "fieldPath": "city.code",
          "order": "ASCENDING"
        },
        {
          "fieldPath": "coreUid",
          "order": "ASCENDING"
        },
        {
          "fieldPath": "updateAt",
          "order": "DESCENDING"
        }
      ]
    },
    {
      "collectionGroup": "core-meeting",
      "queryScope": "COLLECTION",
      "fields": [
        {
          "fieldPath": "city.code",
          "order": "ASCENDING"
        },
        {
          "fieldPath": "updateAt",
          "order": "DESCENDING"
        }
      ]
    },
    {
      "collectionGroup": "family-notes",
      "queryScope": "COLLECTION",
      "fields": [
        {
          "fieldPath": "city.code",
          "order": "ASCENDING"
        },
        {
          "fieldPath": "familyUid",
          "order": "ASCENDING"
        },
        {
          "fieldPath": "updateAt",
          "order": "DESCENDING"
        }
      ]
    },
    {
      "collectionGroup": "fsp-notes",
      "queryScope": "COLLECTION",
      "fields": [
        {
          "fieldPath": "parentUid",
          "order": "ASCENDING"
        },
        {
          "fieldPath": "updateAt",
          "order": "DESCENDING"
        }
      ]
    },
    {
      "collectionGroup": "group-meeting",
      "queryScope": "COLLECTION",
      "fields": [
        {
          "fieldPath": "city.code",
          "order": "ASCENDING"
        },
        {
          "fieldPath": "groupUid",
          "order": "ASCENDING"
        },
        {
          "fieldPath": "updateAt",
          "order": "DESCENDING"
        }
      ]
    },
    {
      "collectionGroup": "group-meeting",
      "queryScope": "COLLECTION",
      "fields": [
        {
          "fieldPath": "city.code",
          "order": "ASCENDING"
        },
        {
          "fieldPath": "updateAt",
          "order": "DESCENDING"
        }
      ]
    },
    {
      "collectionGroup": "hc-notes",
      "queryScope": "COLLECTION",
      "fields": [
        {
          "fieldPath": "parentUid",
          "order": "ASCENDING"
        },
        {
          "fieldPath": "updateAt",
          "order": "DESCENDING"
        }
      ]
    },
    {
      "collectionGroup": "service-acessuas",
      "queryScope": "COLLECTION",
      "fields": [
        {
          "fieldPath": "city.code",
          "order": "ASCENDING"
        },
        {
          "fieldPath": "familyUid",
          "order": "ASCENDING"
        },
        {
          "fieldPath": "updateAt",
          "order": "DESCENDING"
        }
      ]
    },
    {
      "collectionGroup": "service-aepeti",
      "queryScope": "COLLECTION",
      "fields": [
        {
          "fieldPath": "city.code",
          "order": "ASCENDING"
        },
        {
          "fieldPath": "familyUid",
          "order": "ASCENDING"
        },
        {
          "fieldPath": "updateAt",
          "order": "DESCENDING"
        }
      ]
    },
    {
      "collectionGroup": "service-attendance",
      "queryScope": "COLLECTION",
      "fields": [
        {
          "fieldPath": "city.code",
          "order": "ASCENDING"
        },
        {
          "fieldPath": "familyUid",
          "order": "ASCENDING"
        },
        {
          "fieldPath": "updateAt",
          "order": "DESCENDING"
        }
      ]
    },
    {
      "collectionGroup": "service-benefit",
      "queryScope": "COLLECTION",
      "fields": [
        {
          "fieldPath": "city.code",
          "order": "ASCENDING"
        },
        {
          "fieldPath": "familyUid",
          "order": "ASCENDING"
        },
        {
          "fieldPath": "updateAt",
          "order": "DESCENDING"
        }
      ]
    },
    {
      "collectionGroup": "service-complaint",
      "queryScope": "COLLECTION",
      "fields": [
        {
          "fieldPath": "city.code",
          "order": "ASCENDING"
        },
        {
          "fieldPath": "familyUid",
          "order": "ASCENDING"
        },
        {
          "fieldPath": "updateAt",
          "order": "DESCENDING"
        }
      ]
    },
    {
      "collectionGroup": "service-condition",
      "queryScope": "COLLECTION",
      "fields": [
        {
          "fieldPath": "city.code",
          "order": "ASCENDING"
        },
        {
          "fieldPath": "familyUid",
          "order": "ASCENDING"
        },
        {
          "fieldPath": "updateAt",
          "order": "DESCENDING"
        }
      ]
    },
    {
      "collectionGroup": "service-demand",
      "queryScope": "COLLECTION",
      "fields": [
        {
          "fieldPath": "active",
          "order": "ASCENDING"
        },
        {
          "fieldPath": "city.code",
          "order": "ASCENDING"
        },
        {
          "fieldPath": "user.subSector",
          "order": "ASCENDING"
        },
        {
          "fieldPath": "updateAt",
          "order": "DESCENDING"
        }
      ]
    },
    {
      "collectionGroup": "service-demand",
      "queryScope": "COLLECTION",
      "fields": [
        {
          "fieldPath": "city.code",
          "order": "ASCENDING"
        },
        {
          "fieldPath": "familyUid",
          "order": "ASCENDING"
        },
        {
          "fieldPath": "updateAt",
          "order": "DESCENDING"
        }
      ]
    },
    {
      "collectionGroup": "service-fpgb",
      "queryScope": "COLLECTION",
      "fields": [
        {
          "fieldPath": "city.code",
          "order": "ASCENDING"
        },
        {
          "fieldPath": "familyUid",
          "order": "ASCENDING"
        },
        {
          "fieldPath": "updateAt",
          "order": "DESCENDING"
        }
      ]
    },
    {
      "collectionGroup": "service-fsp",
      "queryScope": "COLLECTION",
      "fields": [
        {
          "fieldPath": "active",
          "order": "ASCENDING"
        },
        {
          "fieldPath": "city.code",
          "order": "ASCENDING"
        },
        {
          "fieldPath": "user.subSector",
          "order": "ASCENDING"
        },
        {
          "fieldPath": "updateAt",
          "order": "DESCENDING"
        }
      ]
    },
    {
      "collectionGroup": "service-fsp",
      "queryScope": "COLLECTION",
      "fields": [
        {
          "fieldPath": "city.code",
          "order": "ASCENDING"
        },
        {
          "fieldPath": "familyUid",
          "order": "ASCENDING"
        },
        {
          "fieldPath": "updateAt",
          "order": "DESCENDING"
        }
      ]
    },
    {
      "collectionGroup": "service-group",
      "queryScope": "COLLECTION",
      "fields": [
        {
          "fieldPath": "city.code",
          "order": "ASCENDING"
        },
        {
          "fieldPath": "familyUid",
          "order": "ASCENDING"
        },
        {
          "fieldPath": "updateAt",
          "order": "DESCENDING"
        }
      ]
    },
    {
      "collectionGroup": "service-hc",
      "queryScope": "COLLECTION",
      "fields": [
        {
          "fieldPath": "active",
          "order": "ASCENDING"
        },
        {
          "fieldPath": "city.code",
          "order": "ASCENDING"
        },
        {
          "fieldPath": "user.subSector",
          "order": "ASCENDING"
        },
        {
          "fieldPath": "updateAt",
          "order": "DESCENDING"
        }
      ]
    },
    {
      "collectionGroup": "service-hc",
      "queryScope": "COLLECTION",
      "fields": [
        {
          "fieldPath": "city.code",
          "order": "ASCENDING"
        },
        {
          "fieldPath": "familyUid",
          "order": "ASCENDING"
        },
        {
          "fieldPath": "updateAt",
          "order": "DESCENDING"
        }
      ]
    },
    {
      "collectionGroup": "service-interview",
      "queryScope": "COLLECTION",
      "fields": [
        {
          "fieldPath": "city.code",
          "order": "ASCENDING"
        },
        {
          "fieldPath": "familyUid",
          "order": "ASCENDING"
        },
        {
          "fieldPath": "updateAt",
          "order": "DESCENDING"
        }
      ]
    },
    {
      "collectionGroup": "service-milk",
      "queryScope": "COLLECTION",
      "fields": [
        {
          "fieldPath": "city.code",
          "order": "ASCENDING"
        },
        {
          "fieldPath": "familyUid",
          "order": "ASCENDING"
        },
        {
          "fieldPath": "updateAt",
          "order": "DESCENDING"
        }
      ]
    },
    {
      "collectionGroup": "service-notification",
      "queryScope": "COLLECTION",
      "fields": [
        {
          "fieldPath": "city.code",
          "order": "ASCENDING"
        },
        {
          "fieldPath": "familyUid",
          "order": "ASCENDING"
        },
        {
          "fieldPath": "updateAt",
          "order": "DESCENDING"
        }
      ]
    },
    {
      "collectionGroup": "service-old",
      "queryScope": "COLLECTION",
      "fields": [
        {
          "fieldPath": "city.code",
          "order": "ASCENDING"
        },
        {
          "fieldPath": "familyUid",
          "order": "ASCENDING"
        },
        {
          "fieldPath": "updateAt",
          "order": "DESCENDING"
        }
      ]
    },
    {
      "collectionGroup": "service-pendency",
      "queryScope": "COLLECTION",
      "fields": [
        {
          "fieldPath": "city.code",
          "order": "ASCENDING"
        },
        {
          "fieldPath": "familyUid",
          "order": "ASCENDING"
        },
        {
          "fieldPath": "updateAt",
          "order": "DESCENDING"
        }
      ]
    },
    {
      "collectionGroup": "service-reference",
      "queryScope": "COLLECTION",
      "fields": [
        {
          "fieldPath": "city.code",
          "order": "ASCENDING"
        },
        {
          "fieldPath": "familyUid",
          "order": "ASCENDING"
        },
        {
          "fieldPath": "updateAt",
          "order": "DESCENDING"
        }
      ]
    },
    {
      "collectionGroup": "service-route",
      "queryScope": "COLLECTION",
      "fields": [
        {
          "fieldPath": "active",
          "order": "ASCENDING"
        },
        {
          "fieldPath": "city.code",
          "order": "ASCENDING"
        },
        {
          "fieldPath": "sector",
          "order": "ASCENDING"
        },
        {
          "fieldPath": "updateAt",
          "order": "DESCENDING"
        }
      ]
    },
    {
      "collectionGroup": "service-route",
      "queryScope": "COLLECTION",
      "fields": [
        {
          "fieldPath": "active",
          "order": "ASCENDING"
        },
        {
          "fieldPath": "city.code",
          "order": "ASCENDING"
        },
        {
          "fieldPath": "user.subSector",
          "order": "ASCENDING"
        },
        {
          "fieldPath": "updateAt",
          "order": "DESCENDING"
        }
      ]
    },
    {
      "collectionGroup": "service-route",
      "queryScope": "COLLECTION",
      "fields": [
        {
          "fieldPath": "city.code",
          "order": "ASCENDING"
        },
        {
          "fieldPath": "familyUid",
          "order": "ASCENDING"
        },
        {
          "fieldPath": "updateAt",
          "order": "DESCENDING"
        }
      ]
    },
    {
      "collectionGroup": "service-scfv",
      "queryScope": "COLLECTION",
      "fields": [
        {
          "fieldPath": "city.code",
          "order": "ASCENDING"
        },
        {
          "fieldPath": "familyUid",
          "order": "ASCENDING"
        },
        {
          "fieldPath": "updateAt",
          "order": "DESCENDING"
        }
      ]
    },
    {
      "collectionGroup": "service-schedule",
      "queryScope": "COLLECTION",
      "fields": [
        {
          "fieldPath": "active",
          "order": "ASCENDING"
        },
        {
          "fieldPath": "city.code",
          "order": "ASCENDING"
        },
        {
          "fieldPath": "user.subSector",
          "order": "ASCENDING"
        },
        {
          "fieldPath": "updateAt",
          "order": "DESCENDING"
        }
      ]
    },
    {
      "collectionGroup": "service-schedule",
      "queryScope": "COLLECTION",
      "fields": [
        {
          "fieldPath": "city.code",
          "order": "ASCENDING"
        },
        {
          "fieldPath": "familyUid",
          "order": "ASCENDING"
        },
        {
          "fieldPath": "updateAt",
          "order": "DESCENDING"
        }
      ]
    },
    {
      "collectionGroup": "service-term",
      "queryScope": "COLLECTION",
      "fields": [
        {
          "fieldPath": "city.code",
          "order": "ASCENDING"
        },
        {
          "fieldPath": "familyUid",
          "order": "ASCENDING"
        },
        {
          "fieldPath": "updateAt",
          "order": "DESCENDING"
        }
      ]
    },
    {
      "collectionGroup": "service-visit",
      "queryScope": "COLLECTION",
      "fields": [
        {
          "fieldPath": "active",
          "order": "ASCENDING"
        },
        {
          "fieldPath": "city.code",
          "order": "ASCENDING"
        },
        {
          "fieldPath": "user.subSector",
          "order": "ASCENDING"
        },
        {
          "fieldPath": "updateAt",
          "order": "DESCENDING"
        }
      ]
    },
    {
      "collectionGroup": "service-visit",
      "queryScope": "COLLECTION",
      "fields": [
        {
          "fieldPath": "city.code",
          "order": "ASCENDING"
        },
        {
          "fieldPath": "familyUid",
          "order": "ASCENDING"
        },
        {
          "fieldPath": "updateAt",
          "order": "DESCENDING"
        }
      ]
    }
  ],
  "fieldOverrides": []
}
